[gd_scene load_steps=2 format=2]

[ext_resource path="res://MessageView.gd" type="Script" id=1]

[node name="MessageView" type="Control"]
anchor_right = 1.0
anchor_bottom = 1.0
rect_min_size = Vector2( 0, 30 )
size_flags_horizontal = 3
size_flags_vertical = 3
script = ExtResource( 1 )
__meta__ = {
"_edit_use_anchors_": false
}

[node name="Layout" type="HBoxContainer" parent="."]
anchor_right = 1.0
anchor_bottom = 1.0
size_flags_horizontal = 3
size_flags_vertical = 3
__meta__ = {
"_edit_use_anchors_": false
}

[node name="Message" type="Label" parent="Layout"]
margin_right = 927.0
margin_bottom = 600.0
size_flags_horizontal = 3
size_flags_vertical = 3
size_flags_stretch_ratio = 10.0
valign = 1

[node name="Delete" type="Button" parent="Layout"]
margin_left = 931.0
margin_right = 1024.0
margin_bottom = 600.0
size_flags_horizontal = 3
size_flags_vertical = 3
text = "Delete"

[node name="ConfirmDelete" type="ConfirmationDialog" parent="."]
anchor_left = 0.5
anchor_top = 0.5
anchor_right = 0.5
anchor_bottom = 0.5
margin_left = -198.5
margin_top = -78.0
margin_right = 198.5
margin_bottom = 78.0
__meta__ = {
"_edit_use_anchors_": false
}
[connection signal="pressed" from="Layout/Delete" to="." method="_on_Delete_pressed"]
[connection signal="confirmed" from="ConfirmDelete" to="." method="_on_ConfirmDelete_confirmed"]
